<svg id="Camada_1" data-name="Camada 1" xmlns="http://www.w3.org/2000/svg" width="34.47" height="34.47" viewBox="0 0 34.47 34.47">
  <g id="Caminho_427" data-name="Caminho 427">
    <path d="M17.23,34.47A17.24,17.24,0,1,1,34.47,17.23v.08A17.24,17.24,0,0,1,17.23,34.47ZM6.43,28l0,0a15.12,15.12,0,0,0,10.77,4.46h0A15.15,15.15,0,0,0,28,28l0,0A24.47,24.47,0,0,0,6.43,28ZM17.23,2A15.24,15.24,0,0,0,5.08,26.43a26.45,26.45,0,0,1,24.31,0,15.18,15.18,0,0,0,3.08-9.19v-.07A15.25,15.25,0,0,0,17.23,2Zm0,18a6.42,6.42,0,0,1,0-12.83h0a6.43,6.43,0,0,1,6.42,6.41s0,.06,0,.1A6.42,6.42,0,0,1,17.23,20Zm0-10.83h0a4.42,4.42,0,1,0,4.41,4.41.25.25,0,0,1,0-.08A4.42,4.42,0,0,0,17.23,9.21Z" transform="translate(0)" style="fill: #575353"/>
  </g>
</svg>
